Intro a R
…
```r
library(opuy)

data <- opuy %>% 
  filter(medicion == "Evaluacion de gestion presidente",
         categoria == "Aprueba") %>% 
  select(fecha, empresa, presidente, valor) %>% 
  rename(aprobacion = valor) %>% 
  arrange(fecha)

data
```

```
## # A tibble: 268 x 4
##    fecha      empresa presidente aprobacion
##    <date>     <chr>   <chr>           <dbl>
##  1 1990-08-13 Equipos Lacalle          18  
##  2 1990-11-17 Equipos Lacalle          14  
##  3 1991-07-31 Equipos Lacalle          17  
##  4 1991-12-06 Equipos Lacalle          14  
##  5 1992-04-12 Equipos Lacalle          13  
##  6 1992-08-18 Equipos Lacalle          11  
##  7 1992-11-22 Equipos Lacalle          14  
##  8 1993-02-26 Equipos Lacalle          18  
##  9 1993-04-01 Equipos Lacalle          12.9
## 10 1993-06-02 Equipos Lacalle          15.1
## # ... with 258 more rows
```
…
