Intro a R
…
# Dialectos

---
## Ejercicio 

.content-box-blue[
*Supongamos que tengo estos datos:*
]

```r
data
```

```
## # A tibble: 35 x 5
##     year      gdp_lcu inflation unemployment presidente 
##    <dbl>        <dbl>     <dbl>        <dbl> <chr>      
##  1  1985 249277574100      72.2        NA    Sanguinetti
##  2  1986 271238450500      76.4        NA    Sanguinetti
##  3  1987 292918912000      63.6        NA    Sanguinetti
##  4  1988 297256857900      62.2        NA    Sanguinetti
##  5  1989 300538279400      80.4        NA    Sanguinetti
##  6  1990 301431925100     113.         NA    Lacalle    
##  7  1991 312099023700     102.          9.01 Lacalle    
##  8  1992 336853433700      68.5         8.98 Lacalle    
##  9  1993 345805469000      54.1         8.94 Lacalle    
## 10  1994 370984750100      44.7         9    Lacalle    
## # ... with 25 more rows
```
…
```r
data_gapminder <- as_tibble(data_gapminder) # Pasamos nuevamente a tibble
class(data_gapminder)
```

```
## [1] "tbl_df"     "tbl"        "data.frame"
```

```r
print(data_gapminder)
```

```
## # A tibble: 1,704 x 6
##    country     continent  year lifeExp      pop gdpPercap
##    <fct>       <fct>     <int>   <dbl>    <int>     <dbl>
##  1 Afghanistan Asia       1952    28.8  8425333      779.
##  2 Afghanistan Asia       1957    30.3  9240934      821.
##  3 Afghanistan Asia       1962    32.0 10267083      853.
##  4 Afghanistan Asia       1967    34.0 11537966      836.
##  5 Afghanistan Asia       1972    36.1 13079460      740.
##  6 Afghanistan Asia       1977    38.4 14880372      786.
##  7 Afghanistan Asia       1982    39.9 12881816      978.
##  8 Afghanistan Asia       1987    40.8 13867957      852.
##  9 Afghanistan Asia       1992    41.7 16317921      649.
## 10 Afghanistan Asia       1997    41.8 22227415      635.
## # ... with 1,694 more rows
```
…
